*   Trying 104.193.88.77...
* TCP_NODELAY set
* Connected to www.baidu.com (104.193.88.77) port 80 (#0)
> GET / HTTP/1.1
> Host: www.baidu.com
> User-Agent: curl/7.54.0
> Accept: */*
> 
< HTTP/1.1 200 OK
< Accept-Ranges: bytes
< Cache-Control: private, no-cache, no-store, proxy-revalidate, no-transform
< Connection: Keep-Alive
< Content-Length: 2381
< Content-Type: text/html
< Date: Wed, 13 Jun 2018 04:24:59 GMT
< Etag: "588604eb-94d"
< Last-Modified: Mon, 23 Jan 2017 13:28:11 GMT
< Pragma: no-cache
< Server: bfe/1.0.8.18
< Set-Cookie: BDORZ=27315; max-age=86400; domain=.baidu.com; path=/
< 
{ [2381 bytes data]
######################################################################## 100.0%* Connection #0 to host www.baidu.com left intact

